{
  "project_info": {
    "project_number": "729566977149",
    "firebase_url": "https://testappfb-241df.firebaseio.com",
    "project_id": "testappfb-241df",
    "storage_bucket": "testappfb-241df.appspot.com"
  },
  "client": [
    {
      "client_info": {
        "mobilesdk_app_id": "1:729566977149:android:21914d25bfa88493",
        "android_client_info": {
          "package_name": "com.testapp"
        }
      },
      "oauth_client": [
        {
          "client_id": "729566977149-46pfub2c2n3gab2h9g5mimcfjij2kaqh.apps.googleusercontent.com",
          "client_type": 3
        }
      ],
      "api_key": [
        {
          "current_key": "AIzaSyDsEAMIjcG46AfXYaDoNX7OaZi2tfzyA-4"
        }
      ],
      "services": {
        "analytics_service": {
          "status": 1
        },
        "appinvite_service": {
          "status": 1,
          "other_platform_oauth_client": []
        },
        "ads_service": {
          "status": 2
        }
      }
    }
  ],
  "configuration_version": "1"
}